{
    "items": [
        {
            "external_urls": {
                "spotify": "https://open.spotify.com/artist/3qwxSif06Qwzykdln8ZGfG"
            },
            "followers": {
                "href": null,
                "total": 134786
            },
            "genres": [
                "acid jazz",
                "big beat",
                "electro swing",
                "electronic",
                "ninja",
                "nu jazz",
                "trip hop",
                "turntablism"
            ],
            "href": "https://api.spotify.com/v1/artists/3qwxSif06Qwzykdln8ZGfG",
            "id": "3qwxSif06Qwzykdln8ZGfG",
            "images": [
                {
                    "height": 640,
                    "url": "https://i.scdn.co/image/a1f38e1e3b30a3bdbf97e4a08b7408fc161f11c4",
                    "width": 640
                },
                {
                    "height": 320,
                    "url": "https://i.scdn.co/image/08a63c1c77d43ffb3f5e3a78290e20b80f109fd1",
                    "width": 320
                },
                {
                    "height": 160,
                    "url": "https://i.scdn.co/image/aa4ee57fda8becb0e786de155577298980359bc7",
                    "width": 160
                }
            ],
            "name": "Wax Tailor",
            "popularity": 59,
            "type": "artist",
            "uri": "spotify:artist:3qwxSif06Qwzykdln8ZGfG"
        },
        {
            "external_urls": {
                "spotify": "https://open.spotify.com/artist/0krXCIkthz13P8o0v2tksH"
            },
            "followers": {
                "href": null,
                "total": 108817
            },
            "genres": [
                "finnish metal",
                "folk metal",
                "gothic metal",
                "melodic death metal",
                "melodic metalcore",
                "metal",
                "power metal",
                "progressive metal",
                "speed metal",
                "viking metal"
            ],
            "href": "https://api.spotify.com/v1/artists/0krXCIkthz13P8o0v2tksH",
            "id": "0krXCIkthz13P8o0v2tksH",
            "images": [
                {
                    "height": 640,
                    "url": "https://i.scdn.co/image/f15dea4e4ec550a491c23c86b546a92944b307e4",
                    "width": 640
                },
                {
                    "height": 320,
                    "url": "https://i.scdn.co/image/a9416a69982b2ecbe7d5d7d3a0736e6301556547",
                    "width": 320
                },
                {
                    "height": 160,
                    "url": "https://i.scdn.co/image/45ba69dafee3dc506d1bbb05c9c4cff72e9944b3",
                    "width": 160
                }
            ],
            "name": "Ensiferum",
            "popularity": 59,
            "type": "artist",
            "uri": "spotify:artist:0krXCIkthz13P8o0v2tksH"
        },
        {
            "external_urls": {
                "spotify": "https://open.spotify.com/artist/6ZNO9GWnBJQj7WtQFJfyBq"
            },
            "followers": {
                "href": null,
                "total": 1919
            },
            "genres": [
                "garage punk blues",
                "gothic americana"
            ],
            "href": "https://api.spotify.com/v1/artists/6ZNO9GWnBJQj7WtQFJfyBq",
            "id": "6ZNO9GWnBJQj7WtQFJfyBq",
            "images": [
                {
                    "height": 640,
                    "url": "https://i.scdn.co/image/377813b6838932019d3bb73cb7ed0ff086cd2032",
                    "width": 640
                },
                {
                    "height": 300,
                    "url": "https://i.scdn.co/image/3ad08bac99a29d5cf6c8780dbedc31bb45e32550",
                    "width": 300
                },
                {
                    "height": 64,
                    "url": "https://i.scdn.co/image/e32a981348b09811533bcdf38b94d6565d1448a1",
                    "width": 64
                }
            ],
            "name": "The Dad Horse Experience",
            "popularity": 26,
            "type": "artist",
            "uri": "spotify:artist:6ZNO9GWnBJQj7WtQFJfyBq"
        },
        {
            "external_urls": {
                "spotify": "https://open.spotify.com/artist/0YC192cP3KPCRWx8zr8MfZ"
            },
            "followers": {
                "href": null,
                "total": 969934
            },
            "genres": [
                "soundtrack"
            ],
            "href": "https://api.spotify.com/v1/artists/0YC192cP3KPCRWx8zr8MfZ",
            "id": "0YC192cP3KPCRWx8zr8MfZ",
            "images": [
                {
                    "height": 563,
                    "url": "https://i.scdn.co/image/14657235e8724181f8b32c6bfa54cdbf86d70852",
                    "width": 1000
                },
                {
                    "height": 360,
                    "url": "https://i.scdn.co/image/960a8d4afdf777c543618e384428aacffdcf517a",
                    "width": 640
                },
                {
                    "height": 113,
                    "url": "https://i.scdn.co/image/94ad4486b19037fa88ed58a946698365f4a7bb73",
                    "width": 200
                },
                {
                    "height": 36,
                    "url": "https://i.scdn.co/image/3d05c3dffd54fb06b0191f258e88ca3b5832250f",
                    "width": 64
                }
            ],
            "name": "Hans Zimmer",
            "popularity": 81,
            "type": "artist",
            "uri": "spotify:artist:0YC192cP3KPCRWx8zr8MfZ"
        },
        {
            "external_urls": {
                "spotify": "https://open.spotify.com/artist/5dCpFeKxLbycrnsjWZjha8"
            },
            "followers": {
                "href": null,
                "total": 48857
            },
            "genres": [
                "chillhop",
                "electro swing",
                "nu jazz"
            ],
            "href": "https://api.spotify.com/v1/artists/5dCpFeKxLbycrnsjWZjha8",
            "id": "5dCpFeKxLbycrnsjWZjha8",
            "images": [
                {
                    "height": 640,
                    "url": "https://i.scdn.co/image/d1d40cb859927d5e23a0e3a571efb10f06e3af36",
                    "width": 640
                },
                {
                    "height": 300,
                    "url": "https://i.scdn.co/image/88153eec25779bf72d2b1ad22f55176bbfdb8dbb",
                    "width": 300
                },
                {
                    "height": 64,
                    "url": "https://i.scdn.co/image/834f3e23f970c0828ce131b341aedaa3ec8cfc85",
                    "width": 64
                }
            ],
            "name": "Proleter",
            "popularity": 54,
            "type": "artist",
            "uri": "spotify:artist:5dCpFeKxLbycrnsjWZjha8"
        },
        {
            "external_urls": {
                "spotify": "https://open.spotify.com/artist/3OpqU68JpZlzvjAJj3B2Da"
            },
            "followers": {
                "href": null,
                "total": 152864
            },
            "genres": [
                "comic",
                "metal",
                "power metal",
                "progressive metal",
                "speed metal"
            ],
            "href": "https://api.spotify.com/v1/artists/3OpqU68JpZlzvjAJj3B2Da",
            "id": "3OpqU68JpZlzvjAJj3B2Da",
            "images": [
                {
                    "height": 640,
                    "url": "https://i.scdn.co/image/eb9ba272ef993ba1c3516a7ea8633f9b5f96440b",
                    "width": 640
                },
                {
                    "height": 320,
                    "url": "https://i.scdn.co/image/8d14b3914f9070001e1edb8f1a6f3302a7e7ca63",
                    "width": 320
                },
                {
                    "height": 160,
                    "url": "https://i.scdn.co/image/e7a433b1030c4cf5ce732b834b5dd0a2d4024ee5",
                    "width": 160
                }
            ],
            "name": "Alestorm",
            "popularity": 65,
            "type": "artist",
            "uri": "spotify:artist:3OpqU68JpZlzvjAJj3B2Da"
        },
        {
            "external_urls": {
                "spotify": "https://open.spotify.com/artist/6LqNN22kT3074XbTVUrhzX"
            },
            "followers": {
                "href": null,
                "total": 2180664
            },
            "genres": [
                "dance pop",
                "pop",
                "pop rap",
                "post-teen pop",
                "r&b"
            ],
            "href": "https://api.spotify.com/v1/artists/6LqNN22kT3074XbTVUrhzX",
            "id": "6LqNN22kT3074XbTVUrhzX",
            "images": [
                {
                    "height": 640,
                    "url": "https://i.scdn.co/image/a67efd9259143e36f0e8a7901e7af6c40b2810ca",
                    "width": 640
                },
                {
                    "height": 320,
                    "url": "https://i.scdn.co/image/b139c81796a0d6a54f78a4448b042353a917982e",
                    "width": 320
                },
                {
                    "height": 160,
                    "url": "https://i.scdn.co/image/f36234119f3fbd5089721cfef59af14423b10441",
                    "width": 160
                }
            ],
            "name": "Kesha",
            "popularity": 87,
            "type": "artist",
            "uri": "spotify:artist:6LqNN22kT3074XbTVUrhzX"
        },
        {
            "external_urls": {
                "spotify": "https://open.spotify.com/artist/0VeT7hHTJFJZcENGekjCsB"
            },
            "followers": {
                "href": null,
                "total": 48735
            },
            "genres": [
                "epicore",
                "scorecore",
                "soundtrack",
                "theme",
                "video game music"
            ],
            "href": "https://api.spotify.com/v1/artists/0VeT7hHTJFJZcENGekjCsB",
            "id": "0VeT7hHTJFJZcENGekjCsB",
            "images": [
                {
                    "height": 640,
                    "url": "https://i.scdn.co/image/1b5f0a4835da2143faf0e6f639ba63b3c6f8e31c",
                    "width": 640
                },
                {
                    "height": 320,
                    "url": "https://i.scdn.co/image/fc521a20b48a8c2d8935b292fe775a77822295d8",
                    "width": 320
                },
                {
                    "height": 160,
                    "url": "https://i.scdn.co/image/1678aefc2c61eff2d6be799c17a063cd76d39043",
                    "width": 160
                }
            ],
            "name": "London Music Works",
            "popularity": 59,
            "type": "artist",
            "uri": "spotify:artist:0VeT7hHTJFJZcENGekjCsB"
        },
        {
            "external_urls": {
                "spotify": "https://open.spotify.com/artist/6563Q8dHbDSq4DICGhel0d"
            },
            "followers": {
                "href": null,
                "total": 3232
            },
            "genres": [
                "british folk",
                "traditional british folk"
            ],
            "href": "https://api.spotify.com/v1/artists/6563Q8dHbDSq4DICGhel0d",
            "id": "6563Q8dHbDSq4DICGhel0d",
            "images": [
                {
                    "height": 640,
                    "url": "https://i.scdn.co/image/9e93c7e4408e84553ec096f0d8fc0986ac2c19f1",
                    "width": 640
                },
                {
                    "height": 300,
                    "url": "https://i.scdn.co/image/3068938eb921a7cc2a78e86b33a4c79cc203fcab",
                    "width": 300
                },
                {
                    "height": 64,
                    "url": "https://i.scdn.co/image/5bafb12311cc8e56cade9ffd08935cab55a94ebb",
                    "width": 64
                }
            ],
            "name": "The Imagined Village",
            "popularity": 28,
            "type": "artist",
            "uri": "spotify:artist:6563Q8dHbDSq4DICGhel0d"
        },
        {
            "external_urls": {
                "spotify": "https://open.spotify.com/artist/0i1s9WcIu0PrUvHzALgofo"
            },
            "followers": {
                "href": null,
                "total": 432984
            },
            "genres": [
                "bossa nova",
                "mpb",
                "pagode",
                "samba"
            ],
            "href": "https://api.spotify.com/v1/artists/0i1s9WcIu0PrUvHzALgofo",
            "id": "0i1s9WcIu0PrUvHzALgofo",
            "images": [
                {
                    "height": 640,
                    "url": "https://i.scdn.co/image/65f4da7cc3ab4d227c3862680117fbd27f67ffcb",
                    "width": 640
                },
                {
                    "height": 300,
                    "url": "https://i.scdn.co/image/632695a6cfad098e9393de5d53a701ead0f6a6cc",
                    "width": 300
                },
                {
                    "height": 64,
                    "url": "https://i.scdn.co/image/75827c281a5c34a27eb7b0364c2b0fa567b1a69e",
                    "width": 64
                }
            ],
            "name": "Seu Jorge",
            "popularity": 68,
            "type": "artist",
            "uri": "spotify:artist:0i1s9WcIu0PrUvHzALgofo"
        },
        {
            "external_urls": {
                "spotify": "https://open.spotify.com/artist/3FuzPmx49qjFhzbG99d9Kr"
            },
            "followers": {
                "href": null,
                "total": 35014
            },
            "genres": [
                "russian punk"
            ],
            "href": "https://api.spotify.com/v1/artists/3FuzPmx49qjFhzbG99d9Kr",
            "id": "3FuzPmx49qjFhzbG99d9Kr",
            "images": [
                {
                    "height": 1000,
                    "url": "https://i.scdn.co/image/cabbfd6c1bdbdfeb59b8b23c1aada44f471ef85d",
                    "width": 1000
                },
                {
                    "height": 640,
                    "url": "https://i.scdn.co/image/67c15257d42a2b3e849a6549589082719d88b8d4",
                    "width": 640
                },
                {
                    "height": 200,
                    "url": "https://i.scdn.co/image/ebef6c6d38f589013d7094abcf96502a22ce90c6",
                    "width": 200
                },
                {
                    "height": 64,
                    "url": "https://i.scdn.co/image/e7894a17b9ea4150573994daf9e58cabfb18ee87",
                    "width": 64
                }
            ],
            "name": "Russkaja",
            "popularity": 51,
            "type": "artist",
            "uri": "spotify:artist:3FuzPmx49qjFhzbG99d9Kr"
        },
        {
            "external_urls": {
                "spotify": "https://open.spotify.com/artist/6S2tas4z6DyIklBajDqJxI"
            },
            "followers": {
                "href": null,
                "total": 269474
            },
            "genres": [
                "psychedelic trance"
            ],
            "href": "https://api.spotify.com/v1/artists/6S2tas4z6DyIklBajDqJxI",
            "id": "6S2tas4z6DyIklBajDqJxI",
            "images": [
                {
                    "height": 667,
                    "url": "https://i.scdn.co/image/fd58eb7c6cde2012157d1a3bb0f5108837e41de3",
                    "width": 1000
                },
                {
                    "height": 427,
                    "url": "https://i.scdn.co/image/0e88ebba382ac3017e3ee9f9ade501f2378d23d8",
                    "width": 640
                },
                {
                    "height": 133,
                    "url": "https://i.scdn.co/image/2b2285acf988ce2a7ee247ed14d54cee3c5e2ecd",
                    "width": 200
                },
                {
                    "height": 43,
                    "url": "https://i.scdn.co/image/93b935d5886debdfd756db2e8a34e7c353ab7ac4",
                    "width": 64
                }
            ],
            "name": "Infected Mushroom",
            "popularity": 62,
            "type": "artist",
            "uri": "spotify:artist:6S2tas4z6DyIklBajDqJxI"
        },
        {
            "external_urls": {
                "spotify": "https://open.spotify.com/artist/0MiCOT2cVYso39XSskiUUo"
            },
            "followers": {
                "href": null,
                "total": 20539
            },
            "genres": [
                "afrobeat",
                "brass band",
                "deep funk",
                "funk",
                "indie jazz",
                "world"
            ],
            "href": "https://api.spotify.com/v1/artists/0MiCOT2cVYso39XSskiUUo",
            "id": "0MiCOT2cVYso39XSskiUUo",
            "images": [
                {
                    "height": 1000,
                    "url": "https://i.scdn.co/image/3e525ec8b825db8719d407d6b69939da2d92731b",
                    "width": 1000
                },
                {
                    "height": 640,
                    "url": "https://i.scdn.co/image/4e51a4410776bd91f709ad7c6a4ec9e6ba87d1df",
                    "width": 640
                },
                {
                    "height": 200,
                    "url": "https://i.scdn.co/image/83e183fa2dbc984eabd7f254d328ba989d1b6d2a",
                    "width": 200
                },
                {
                    "height": 64,
                    "url": "https://i.scdn.co/image/c29b3947d923103d0de188b26f85979d8e581308",
                    "width": 64
                }
            ],
            "name": "The Souljazz Orchestra",
            "popularity": 46,
            "type": "artist",
            "uri": "spotify:artist:0MiCOT2cVYso39XSskiUUo"
        },
        {
            "external_urls": {
                "spotify": "https://open.spotify.com/artist/0cLrgpG3pW4MX4nD8h6qCc"
            },
            "followers": {
                "href": null,
                "total": 26869
            },
            "genres": [
                "afrobeat",
                "classic funk rock",
                "deep funk",
                "funk",
                "hip hop",
                "indie jazz",
                "soul",
                "trip hop"
            ],
            "href": "https://api.spotify.com/v1/artists/0cLrgpG3pW4MX4nD8h6qCc",
            "id": "0cLrgpG3pW4MX4nD8h6qCc",
            "images": [
                {
                    "height": 640,
                    "url": "https://i.scdn.co/image/6dbdabda0627f805041f476eb4927c791f4c7388",
                    "width": 640
                },
                {
                    "height": 320,
                    "url": "https://i.scdn.co/image/7171fcef00b5a23f7fc7b81b069f6ba7f9a538c0",
                    "width": 320
                },
                {
                    "height": 160,
                    "url": "https://i.scdn.co/image/9dc7f3796cd4be5f3dcfacb53e353c9c8bc27bd1",
                    "width": 160
                }
            ],
            "name": "El Michels Affair",
            "popularity": 56,
            "type": "artist",
            "uri": "spotify:artist:0cLrgpG3pW4MX4nD8h6qCc"
        },
        {
            "external_urls": {
                "spotify": "https://open.spotify.com/artist/3AA28KZvwAUcZuOKwyblJQ"
            },
            "followers": {
                "href": null,
                "total": 2290846
            },
            "genres": [],
            "href": "https://api.spotify.com/v1/artists/3AA28KZvwAUcZuOKwyblJQ",
            "id": "3AA28KZvwAUcZuOKwyblJQ",
            "images": [
                {
                    "height": 640,
                    "url": "https://i.scdn.co/image/f9a085b90008f3bfc338965a18f3bd511f246bf2",
                    "width": 640
                },
                {
                    "height": 320,
                    "url": "https://i.scdn.co/image/b7c79596aed8b241bcf3906d9d50876a5add20e3",
                    "width": 320
                },
                {
                    "height": 160,
                    "url": "https://i.scdn.co/image/7295105aaa6e216ed115c41c3ba2f18a32dd385f",
                    "width": 160
                }
            ],
            "name": "Gorillaz",
            "popularity": 84,
            "type": "artist",
            "uri": "spotify:artist:3AA28KZvwAUcZuOKwyblJQ"
        },
        {
            "external_urls": {
                "spotify": "https://open.spotify.com/artist/1hCkSJcXREhrodeIHQdav8"
            },
            "followers": {
                "href": null,
                "total": 158700
            },
            "genres": [
                "scorecore",
                "soundtrack"
            ],
            "href": "https://api.spotify.com/v1/artists/1hCkSJcXREhrodeIHQdav8",
            "id": "1hCkSJcXREhrodeIHQdav8",
            "images": [
                {
                    "height": 1000,
                    "url": "https://i.scdn.co/image/7f2676e08576f569de15238efe3f2e3cc84c82b6",
                    "width": 1000
                },
                {
                    "height": 640,
                    "url": "https://i.scdn.co/image/8b25e1f43d221c46603a1789d803fd1e8d0aae69",
                    "width": 640
                },
                {
                    "height": 200,
                    "url": "https://i.scdn.co/image/f7989b0b86fa25bd9230d950a5c28545b47210e2",
                    "width": 200
                },
                {
                    "height": 64,
                    "url": "https://i.scdn.co/image/69b0802011e74bb1e357a0849ce27f534f8ab663",
                    "width": 64
                }
            ],
            "name": "Ramin Djawadi",
            "popularity": 80,
            "type": "artist",
            "uri": "spotify:artist:1hCkSJcXREhrodeIHQdav8"
        },
        {
            "external_urls": {
                "spotify": "https://open.spotify.com/artist/2YOPAE5jegb3i2uhVmYk1v"
            },
            "followers": {
                "href": null,
                "total": 5636
            },
            "genres": [
                "throat singing"
            ],
            "href": "https://api.spotify.com/v1/artists/2YOPAE5jegb3i2uhVmYk1v",
            "id": "2YOPAE5jegb3i2uhVmYk1v",
            "images": [
                {
                    "height": 640,
                    "url": "https://i.scdn.co/image/04a0f1ba49e42062eb6ef7c50dbee45404e87f99",
                    "width": 640
                },
                {
                    "height": 300,
                    "url": "https://i.scdn.co/image/5a100384642ef990878e248aa045d1f39aacde69",
                    "width": 300
                },
                {
                    "height": 64,
                    "url": "https://i.scdn.co/image/390b3508430e920663d1d30a05872c65b4983371",
                    "width": 64
                }
            ],
            "name": "Yat-Kha",
            "popularity": 38,
            "type": "artist",
            "uri": "spotify:artist:2YOPAE5jegb3i2uhVmYk1v"
        },
        {
            "external_urls": {
                "spotify": "https://open.spotify.com/artist/7h8ja4JSORo2sXJPmCXRxa"
            },
            "followers": {
                "href": null,
                "total": 207991
            },
            "genres": [
                "alternative hip hop",
                "east coast hip hop",
                "gangster rap",
                "hardcore hip hop",
                "hip hop",
                "rap"
            ],
            "href": "https://api.spotify.com/v1/artists/7h8ja4JSORo2sXJPmCXRxa",
            "id": "7h8ja4JSORo2sXJPmCXRxa",
            "images": [
                {
                    "height": 640,
                    "url": "https://i.scdn.co/image/4ae5b9477a46dd41e7dbc3247af92c2c3ceb6e61",
                    "width": 640
                },
                {
                    "height": 300,
                    "url": "https://i.scdn.co/image/ea8fa2185b0c7058a335f401d1fcec6491738efc",
                    "width": 300
                },
                {
                    "height": 64,
                    "url": "https://i.scdn.co/image/189e7a9b3bb535baf71c834377629f7b6deb42ca",
                    "width": 64
                }
            ],
            "name": "Immortal Technique",
            "popularity": 62,
            "type": "artist",
            "uri": "spotify:artist:7h8ja4JSORo2sXJPmCXRxa"
        },
        {
            "external_urls": {
                "spotify": "https://open.spotify.com/artist/6ATMT5ymPkFFWq5qOqzZ9G"
            },
            "followers": {
                "href": null,
                "total": 4252
            },
            "genres": [],
            "href": "https://api.spotify.com/v1/artists/6ATMT5ymPkFFWq5qOqzZ9G",
            "id": "6ATMT5ymPkFFWq5qOqzZ9G",
            "images": [
                {
                    "height": 640,
                    "url": "https://i.scdn.co/image/3aa54bf39041f799f4b24328b173bdec506ecf92",
                    "width": 640
                },
                {
                    "height": 300,
                    "url": "https://i.scdn.co/image/88155b97a1474f83c20ae0eb5ec841c87a144377",
                    "width": 300
                },
                {
                    "height": 64,
                    "url": "https://i.scdn.co/image/e29f8d188270b64638ea11d84c2e1488fbf0e43f",
                    "width": 64
                }
            ],
            "name": "Jazz Against The Machine",
            "popularity": 28,
            "type": "artist",
            "uri": "spotify:artist:6ATMT5ymPkFFWq5qOqzZ9G"
        },
        {
            "external_urls": {
                "spotify": "https://open.spotify.com/artist/5ABBZoXY5r0UL1txACjinb"
            },
            "followers": {
                "href": null,
                "total": 4246
            },
            "genres": [
                "afrobeat",
                "deep funk",
                "indie jazz"
            ],
            "href": "https://api.spotify.com/v1/artists/5ABBZoXY5r0UL1txACjinb",
            "id": "5ABBZoXY5r0UL1txACjinb",
            "images": [
                {
                    "height": 536,
                    "url": "https://i.scdn.co/image/fb78f9e114bc6ae9fccd48a3e4c3376736e7e1e0",
                    "width": 800
                },
                {
                    "height": 429,
                    "url": "https://i.scdn.co/image/fc9a5566d53b2d149a875cf45afdbf12fcf0c356",
                    "width": 640
                },
                {
                    "height": 134,
                    "url": "https://i.scdn.co/image/f449e561e10a03a3e4ed94489f988e93d7e98aeb",
                    "width": 200
                },
                {
                    "height": 43,
                    "url": "https://i.scdn.co/image/eefeef1eca50f89506db4f4bcf432ef70d5786f0",
                    "width": 64
                }
            ],
            "name": "Ikebe Shakedown",
            "popularity": 40,
            "type": "artist",
            "uri": "spotify:artist:5ABBZoXY5r0UL1txACjinb"
        }
    ],
    "total": 261,
    "limit": 20,
    "offset": 0,
    "href": "https://api.spotify.com/v1/me/top/artists",
    "previous": null,
    "next": "https://api.spotify.com/v1/me/top/artists?limit=20&offset=20"
}
